{
  "project_info": {
    "project_number": "707028810789",
    "firebase_url": "https://flutter-f3964.firebaseio.com",
    "project_id": "flutter-f3964",
    "storage_bucket": "flutter-f3964.appspot.com"
  },
  "client": [
    {
      "client_info": {
        "mobilesdk_app_id": "1:707028810789:android:afcb95bdc09c2da05993cc",
        "android_client_info": {
          "package_name": "com.example.fluttermdr"
        }
      },
      "oauth_client": [
        {
          "client_id": "707028810789-ubd7bg4gtepv9nfja2ku66ghoeha6rkb.apps.googleusercontent.com",
          "client_type": 3
        }
      ],
      "api_key": [
        {
          "current_key": "AIzaSyDpUqwBnW-bepCDxHg3PTyjUDlgWAsrJx8"
        }
      ],
      "services": {
        "appinvite_service": {
          "other_platform_oauth_client": [
            {
              "client_id": "707028810789-ubd7bg4gtepv9nfja2ku66ghoeha6rkb.apps.googleusercontent.com",
              "client_type": 3
            }
          ]
        }
      }
    }
  ],
  "configuration_version": "1"
}